{
  "page": 1,
  "per_page": 15,
  "photos": [
      {
          "id": 2706750,
          "width": 6240,
          "height": 4160,
          "url": "https://www.pexels.com/photo/union-station-building-2706750/",
          "photographer": "Thomas Ward",
          "photographer_url": "https://www.pexels.com/@thomasleeward",
          "photographer_id": 220769,
          "avg_color": "#777272",
          "src": {
              "original": "https://images.pexels.com/photos/2706750/pexels-photo-2706750.jpeg",
              "large2x": "https://images.pexels.com/photos/2706750/pexels-photo-2706750.jpeg?auto=compress&cs=tinysrgb&dpr=2&h=650&w=940",
              "large": "https://images.pexels.com/photos/2706750/pexels-photo-2706750.jpeg?auto=compress&cs=tinysrgb&h=650&w=940",
              "medium": "https://images.pexels.com/photos/2706750/pexels-photo-2706750.jpeg?auto=compress&cs=tinysrgb&h=350",
              "small": "https://images.pexels.com/photos/2706750/pexels-photo-2706750.jpeg?auto=compress&cs=tinysrgb&h=130",
              "portrait": "https://images.pexels.com/photos/2706750/pexels-photo-2706750.jpeg?auto=compress&cs=tinysrgb&fit=crop&h=1200&w=800",
              "landscape": "https://images.pexels.com/photos/2706750/pexels-photo-2706750.jpeg?auto=compress&cs=tinysrgb&fit=crop&h=627&w=1200",
              "tiny": "https://images.pexels.com/photos/2706750/pexels-photo-2706750.jpeg?auto=compress&cs=tinysrgb&dpr=1&fit=crop&h=200&w=280"
          },
          "liked": false
      },
      {
          "id": 3751010,
          "width": 3712,
          "height": 5568,
          "url": "https://www.pexels.com/photo/red-and-white-concrete-building-during-night-time-3751010/",
          "photographer": "Colin Lloyd",
          "photographer_url": "https://www.pexels.com/@colin-lloyd-2120291",
          "photographer_id": 2120291,
          "avg_color": "#5A4741",
          "src": {
              "original": "https://images.pexels.com/photos/3751010/pexels-photo-3751010.jpeg",
              "large2x": "https://images.pexels.com/photos/3751010/pexels-photo-3751010.jpeg?auto=compress&cs=tinysrgb&dpr=2&h=650&w=940",
              "large": "https://images.pexels.com/photos/3751010/pexels-photo-3751010.jpeg?auto=compress&cs=tinysrgb&h=650&w=940",
              "medium": "https://images.pexels.com/photos/3751010/pexels-photo-3751010.jpeg?auto=compress&cs=tinysrgb&h=350",
              "small": "https://images.pexels.com/photos/3751010/pexels-photo-3751010.jpeg?auto=compress&cs=tinysrgb&h=130",
              "portrait": "https://images.pexels.com/photos/3751010/pexels-photo-3751010.jpeg?auto=compress&cs=tinysrgb&fit=crop&h=1200&w=800",
              "landscape": "https://images.pexels.com/photos/3751010/pexels-photo-3751010.jpeg?auto=compress&cs=tinysrgb&fit=crop&h=627&w=1200",
              "tiny": "https://images.pexels.com/photos/3751010/pexels-photo-3751010.jpeg?auto=compress&cs=tinysrgb&dpr=1&fit=crop&h=200&w=280"
          },
          "liked": false
      },
      {
          "id": 3751009,
          "width": 3322,
          "height": 4983,
          "url": "https://www.pexels.com/photo/brown-concrete-building-during-night-time-3751009/",
          "photographer": "Colin Lloyd",
          "photographer_url": "https://www.pexels.com/@colin-lloyd-2120291",
          "photographer_id": 2120291,
          "avg_color": "#606966",
          "src": {
              "original": "https://images.pexels.com/photos/3751009/pexels-photo-3751009.jpeg",
              "large2x": "https://images.pexels.com/photos/3751009/pexels-photo-3751009.jpeg?auto=compress&cs=tinysrgb&dpr=2&h=650&w=940",
              "large": "https://images.pexels.com/photos/3751009/pexels-photo-3751009.jpeg?auto=compress&cs=tinysrgb&h=650&w=940",
              "medium": "https://images.pexels.com/photos/3751009/pexels-photo-3751009.jpeg?auto=compress&cs=tinysrgb&h=350",
              "small": "https://images.pexels.com/photos/3751009/pexels-photo-3751009.jpeg?auto=compress&cs=tinysrgb&h=130",
              "portrait": "https://images.pexels.com/photos/3751009/pexels-photo-3751009.jpeg?auto=compress&cs=tinysrgb&fit=crop&h=1200&w=800",
              "landscape": "https://images.pexels.com/photos/3751009/pexels-photo-3751009.jpeg?auto=compress&cs=tinysrgb&fit=crop&h=627&w=1200",
              "tiny": "https://images.pexels.com/photos/3751009/pexels-photo-3751009.jpeg?auto=compress&cs=tinysrgb&dpr=1&fit=crop&h=200&w=280"
          },
          "liked": false
      },
      {
          "id": 2269617,
          "width": 4000,
          "height": 6000,
          "url": "https://www.pexels.com/photo/concrete-buildings-2269617/",
          "photographer": "Spencer Selover",
          "photographer_url": "https://www.pexels.com/@spencer-selover-142259",
          "photographer_id": 142259,
          "avg_color": "#564F4B",
          "src": {
              "original": "https://images.pexels.com/photos/2269617/pexels-photo-2269617.jpeg",
              "large2x": "https://images.pexels.com/photos/2269617/pexels-photo-2269617.jpeg?auto=compress&cs=tinysrgb&dpr=2&h=650&w=940",
              "large": "https://images.pexels.com/photos/2269617/pexels-photo-2269617.jpeg?auto=compress&cs=tinysrgb&h=650&w=940",
              "medium": "https://images.pexels.com/photos/2269617/pexels-photo-2269617.jpeg?auto=compress&cs=tinysrgb&h=350",
              "small": "https://images.pexels.com/photos/2269617/pexels-photo-2269617.jpeg?auto=compress&cs=tinysrgb&h=130",
              "portrait": "https://images.pexels.com/photos/2269617/pexels-photo-2269617.jpeg?auto=compress&cs=tinysrgb&fit=crop&h=1200&w=800",
              "landscape": "https://images.pexels.com/photos/2269617/pexels-photo-2269617.jpeg?auto=compress&cs=tinysrgb&fit=crop&h=627&w=1200",
              "tiny": "https://images.pexels.com/photos/2269617/pexels-photo-2269617.jpeg?auto=compress&cs=tinysrgb&dpr=1&fit=crop&h=200&w=280"
          },
          "liked": false
      },
      {
          "id": 3751006,
          "width": 5399,
          "height": 8701,
          "url": "https://www.pexels.com/photo/the-denver-post-office-and-federal-court-house-3751006/",
          "photographer": "Colin Lloyd",
          "photographer_url": "https://www.pexels.com/@colin-lloyd-2120291",
          "photographer_id": 2120291,
          "avg_color": "#AAABA7",
          "src": {
              "original": "https://images.pexels.com/photos/3751006/pexels-photo-3751006.jpeg",
              "large2x": "https://images.pexels.com/photos/3751006/pexels-photo-3751006.jpeg?auto=compress&cs=tinysrgb&dpr=2&h=650&w=940",
              "large": "https://images.pexels.com/photos/3751006/pexels-photo-3751006.jpeg?auto=compress&cs=tinysrgb&h=650&w=940",
              "medium": "https://images.pexels.com/photos/3751006/pexels-photo-3751006.jpeg?auto=compress&cs=tinysrgb&h=350",
              "small": "https://images.pexels.com/photos/3751006/pexels-photo-3751006.jpeg?auto=compress&cs=tinysrgb&h=130",
              "portrait": "https://images.pexels.com/photos/3751006/pexels-photo-3751006.jpeg?auto=compress&cs=tinysrgb&fit=crop&h=1200&w=800",
              "landscape": "https://images.pexels.com/photos/3751006/pexels-photo-3751006.jpeg?auto=compress&cs=tinysrgb&fit=crop&h=627&w=1200",
              "tiny": "https://images.pexels.com/photos/3751006/pexels-photo-3751006.jpeg?auto=compress&cs=tinysrgb&dpr=1&fit=crop&h=200&w=280"
          },
          "liked": false
      },
      {
          "id": 210374,
          "width": 2199,
          "height": 1210,
          "url": "https://www.pexels.com/photo/architecture-attractions-building-cheesman-park-210374/",
          "photographer": "Pixabay",
          "photographer_url": "https://www.pexels.com/@pixabay",
          "photographer_id": 2659,
          "avg_color": "#5A7359",
          "src": {
              "original": "https://images.pexels.com/photos/210374/pexels-photo-210374.jpeg",
              "large2x": "https://images.pexels.com/photos/210374/pexels-photo-210374.jpeg?auto=compress&cs=tinysrgb&dpr=2&h=650&w=940",
              "large": "https://images.pexels.com/photos/210374/pexels-photo-210374.jpeg?auto=compress&cs=tinysrgb&h=650&w=940",
              "medium": "https://images.pexels.com/photos/210374/pexels-photo-210374.jpeg?auto=compress&cs=tinysrgb&h=350",
              "small": "https://images.pexels.com/photos/210374/pexels-photo-210374.jpeg?auto=compress&cs=tinysrgb&h=130",
              "portrait": "https://images.pexels.com/photos/210374/pexels-photo-210374.jpeg?auto=compress&cs=tinysrgb&fit=crop&h=1200&w=800",
              "landscape": "https://images.pexels.com/photos/210374/pexels-photo-210374.jpeg?auto=compress&cs=tinysrgb&fit=crop&h=627&w=1200",
              "tiny": "https://images.pexels.com/photos/210374/pexels-photo-210374.jpeg?auto=compress&cs=tinysrgb&dpr=1&fit=crop&h=200&w=280"
          },
          "liked": false
      },
      {
          "id": 3047493,
          "width": 4669,
          "height": 3159,
          "url": "https://www.pexels.com/photo/scenic-view-of-the-mountains-with-green-pine-trees-beside-calm-body-of-water-3047493/",
          "photographer": "Joshua Woroniecki",
          "photographer_url": "https://www.pexels.com/@joshuaworoniecki",
          "photographer_id": 1253228,
          "avg_color": "#537669",
          "src": {
              "original": "https://images.pexels.com/photos/3047493/pexels-photo-3047493.jpeg",
              "large2x": "https://images.pexels.com/photos/3047493/pexels-photo-3047493.jpeg?auto=compress&cs=tinysrgb&dpr=2&h=650&w=940",
              "large": "https://images.pexels.com/photos/3047493/pexels-photo-3047493.jpeg?auto=compress&cs=tinysrgb&h=650&w=940",
              "medium": "https://images.pexels.com/photos/3047493/pexels-photo-3047493.jpeg?auto=compress&cs=tinysrgb&h=350",
              "small": "https://images.pexels.com/photos/3047493/pexels-photo-3047493.jpeg?auto=compress&cs=tinysrgb&h=130",
              "portrait": "https://images.pexels.com/photos/3047493/pexels-photo-3047493.jpeg?auto=compress&cs=tinysrgb&fit=crop&h=1200&w=800",
              "landscape": "https://images.pexels.com/photos/3047493/pexels-photo-3047493.jpeg?auto=compress&cs=tinysrgb&fit=crop&h=627&w=1200",
              "tiny": "https://images.pexels.com/photos/3047493/pexels-photo-3047493.jpeg?auto=compress&cs=tinysrgb&dpr=1&fit=crop&h=200&w=280"
          },
          "liked": false
      },
      {
          "id": 3751008,
          "width": 3712,
          "height": 5568,
          "url": "https://www.pexels.com/photo/people-walking-on-street-3751008/",
          "photographer": "Colin Lloyd",
          "photographer_url": "https://www.pexels.com/@colin-lloyd-2120291",
          "photographer_id": 2120291,
          "avg_color": "#595553",
          "src": {
              "original": "https://images.pexels.com/photos/3751008/pexels-photo-3751008.jpeg",
              "large2x": "https://images.pexels.com/photos/3751008/pexels-photo-3751008.jpeg?auto=compress&cs=tinysrgb&dpr=2&h=650&w=940",
              "large": "https://images.pexels.com/photos/3751008/pexels-photo-3751008.jpeg?auto=compress&cs=tinysrgb&h=650&w=940",
              "medium": "https://images.pexels.com/photos/3751008/pexels-photo-3751008.jpeg?auto=compress&cs=tinysrgb&h=350",
              "small": "https://images.pexels.com/photos/3751008/pexels-photo-3751008.jpeg?auto=compress&cs=tinysrgb&h=130",
              "portrait": "https://images.pexels.com/photos/3751008/pexels-photo-3751008.jpeg?auto=compress&cs=tinysrgb&fit=crop&h=1200&w=800",
              "landscape": "https://images.pexels.com/photos/3751008/pexels-photo-3751008.jpeg?auto=compress&cs=tinysrgb&fit=crop&h=627&w=1200",
              "tiny": "https://images.pexels.com/photos/3751008/pexels-photo-3751008.jpeg?auto=compress&cs=tinysrgb&dpr=1&fit=crop&h=200&w=280"
          },
          "liked": false
      },
      {
          "id": 2269614,
          "width": 4000,
          "height": 6000,
          "url": "https://www.pexels.com/photo/traffic-lights-2269614/",
          "photographer": "Spencer Selover",
          "photographer_url": "https://www.pexels.com/@spencer-selover-142259",
          "photographer_id": 142259,
          "avg_color": "#6D6E6B",
          "src": {
              "original": "https://images.pexels.com/photos/2269614/pexels-photo-2269614.jpeg",
              "large2x": "https://images.pexels.com/photos/2269614/pexels-photo-2269614.jpeg?auto=compress&cs=tinysrgb&dpr=2&h=650&w=940",
              "large": "https://images.pexels.com/photos/2269614/pexels-photo-2269614.jpeg?auto=compress&cs=tinysrgb&h=650&w=940",
              "medium": "https://images.pexels.com/photos/2269614/pexels-photo-2269614.jpeg?auto=compress&cs=tinysrgb&h=350",
              "small": "https://images.pexels.com/photos/2269614/pexels-photo-2269614.jpeg?auto=compress&cs=tinysrgb&h=130",
              "portrait": "https://images.pexels.com/photos/2269614/pexels-photo-2269614.jpeg?auto=compress&cs=tinysrgb&fit=crop&h=1200&w=800",
              "landscape": "https://images.pexels.com/photos/2269614/pexels-photo-2269614.jpeg?auto=compress&cs=tinysrgb&fit=crop&h=627&w=1200",
              "tiny": "https://images.pexels.com/photos/2269614/pexels-photo-2269614.jpeg?auto=compress&cs=tinysrgb&dpr=1&fit=crop&h=200&w=280"
          },
          "liked": false
      },
      {
          "id": 2910299,
          "width": 3448,
          "height": 4592,
          "url": "https://www.pexels.com/photo/man-leaning-on-wall-2910299/",
          "photographer": "Aidan Roof",
          "photographer_url": "https://www.pexels.com/@rozegold",
          "photographer_id": 1271136,
          "avg_color": "#B2A9AD",
          "src": {
              "original": "https://images.pexels.com/photos/2910299/pexels-photo-2910299.jpeg",
              "large2x": "https://images.pexels.com/photos/2910299/pexels-photo-2910299.jpeg?auto=compress&cs=tinysrgb&dpr=2&h=650&w=940",
              "large": "https://images.pexels.com/photos/2910299/pexels-photo-2910299.jpeg?auto=compress&cs=tinysrgb&h=650&w=940",
              "medium": "https://images.pexels.com/photos/2910299/pexels-photo-2910299.jpeg?auto=compress&cs=tinysrgb&h=350",
              "small": "https://images.pexels.com/photos/2910299/pexels-photo-2910299.jpeg?auto=compress&cs=tinysrgb&h=130",
              "portrait": "https://images.pexels.com/photos/2910299/pexels-photo-2910299.jpeg?auto=compress&cs=tinysrgb&fit=crop&h=1200&w=800",
              "landscape": "https://images.pexels.com/photos/2910299/pexels-photo-2910299.jpeg?auto=compress&cs=tinysrgb&fit=crop&h=627&w=1200",
              "tiny": "https://images.pexels.com/photos/2910299/pexels-photo-2910299.jpeg?auto=compress&cs=tinysrgb&dpr=1&fit=crop&h=200&w=280"
          },
          "liked": false
      },
      {
          "id": 2422861,
          "width": 3448,
          "height": 4592,
          "url": "https://www.pexels.com/photo/curtain-wall-high-rise-building-beside-transmission-tower-2422861/",
          "photographer": "Aidan Roof",
          "photographer_url": "https://www.pexels.com/@rozegold",
          "photographer_id": 1271136,
          "avg_color": "#989E9E",
          "src": {
              "original": "https://images.pexels.com/photos/2422861/pexels-photo-2422861.png",
              "large2x": "https://images.pexels.com/photos/2422861/pexels-photo-2422861.png?auto=compress&cs=tinysrgb&dpr=2&h=650&w=940",
              "large": "https://images.pexels.com/photos/2422861/pexels-photo-2422861.png?auto=compress&cs=tinysrgb&h=650&w=940",
              "medium": "https://images.pexels.com/photos/2422861/pexels-photo-2422861.png?auto=compress&cs=tinysrgb&h=350",
              "small": "https://images.pexels.com/photos/2422861/pexels-photo-2422861.png?auto=compress&cs=tinysrgb&h=130",
              "portrait": "https://images.pexels.com/photos/2422861/pexels-photo-2422861.png?auto=compress&cs=tinysrgb&fit=crop&h=1200&w=800",
              "landscape": "https://images.pexels.com/photos/2422861/pexels-photo-2422861.png?auto=compress&cs=tinysrgb&fit=crop&h=627&w=1200",
              "tiny": "https://images.pexels.com/photos/2422861/pexels-photo-2422861.png?auto=compress&cs=tinysrgb&dpr=1&fit=crop&h=200&w=280"
          },
          "liked": false
      },
      {
          "id": 2500159,
          "width": 3448,
          "height": 4592,
          "url": "https://www.pexels.com/photo/photo-of-man-in-hoodie-sitting-on-concrete-slab-in-view-of-high-rise-building-under-sky-2500159/",
          "photographer": "Aidan Roof",
          "photographer_url": "https://www.pexels.com/@rozegold",
          "photographer_id": 1271136,
          "avg_color": "#63585D",
          "src": {
              "original": "https://images.pexels.com/photos/2500159/pexels-photo-2500159.png",
              "large2x": "https://images.pexels.com/photos/2500159/pexels-photo-2500159.png?auto=compress&cs=tinysrgb&dpr=2&h=650&w=940",
              "large": "https://images.pexels.com/photos/2500159/pexels-photo-2500159.png?auto=compress&cs=tinysrgb&h=650&w=940",
              "medium": "https://images.pexels.com/photos/2500159/pexels-photo-2500159.png?auto=compress&cs=tinysrgb&h=350",
              "small": "https://images.pexels.com/photos/2500159/pexels-photo-2500159.png?auto=compress&cs=tinysrgb&h=130",
              "portrait": "https://images.pexels.com/photos/2500159/pexels-photo-2500159.png?auto=compress&cs=tinysrgb&fit=crop&h=1200&w=800",
              "landscape": "https://images.pexels.com/photos/2500159/pexels-photo-2500159.png?auto=compress&cs=tinysrgb&fit=crop&h=627&w=1200",
              "tiny": "https://images.pexels.com/photos/2500159/pexels-photo-2500159.png?auto=compress&cs=tinysrgb&dpr=1&fit=crop&h=200&w=280"
          },
          "liked": false
      },
      {
          "id": 4635036,
          "width": 5448,
          "height": 3632,
          "url": "https://www.pexels.com/photo/people-rallying-in-front-of-white-building-during-nightime-4635036/",
          "photographer": "Colin Lloyd",
          "photographer_url": "https://www.pexels.com/@colin-lloyd-2120291",
          "photographer_id": 2120291,
          "avg_color": "#FFE",
          "src": {
              "original": "https://images.pexels.com/photos/4635036/pexels-photo-4635036.jpeg",
              "large2x": "https://images.pexels.com/photos/4635036/pexels-photo-4635036.jpeg?auto=compress&cs=tinysrgb&dpr=2&h=650&w=940",
              "large": "https://images.pexels.com/photos/4635036/pexels-photo-4635036.jpeg?auto=compress&cs=tinysrgb&h=650&w=940",
              "medium": "https://images.pexels.com/photos/4635036/pexels-photo-4635036.jpeg?auto=compress&cs=tinysrgb&h=350",
              "small": "https://images.pexels.com/photos/4635036/pexels-photo-4635036.jpeg?auto=compress&cs=tinysrgb&h=130",
              "portrait": "https://images.pexels.com/photos/4635036/pexels-photo-4635036.jpeg?auto=compress&cs=tinysrgb&fit=crop&h=1200&w=800",
              "landscape": "https://images.pexels.com/photos/4635036/pexels-photo-4635036.jpeg?auto=compress&cs=tinysrgb&fit=crop&h=627&w=1200",
              "tiny": "https://images.pexels.com/photos/4635036/pexels-photo-4635036.jpeg?auto=compress&cs=tinysrgb&dpr=1&fit=crop&h=200&w=280"
          },
          "liked": false
      },
      {
          "id": 4050390,
          "width": 3070,
          "height": 4605,
          "url": "https://www.pexels.com/photo/an-empty-street-under-cloudy-sky-4050390/",
          "photographer": "Colin Lloyd",
          "photographer_url": "https://www.pexels.com/@colin-lloyd-2120291",
          "photographer_id": 2120291,
          "avg_color": "#6D6965",
          "src": {
              "original": "https://images.pexels.com/photos/4050390/pexels-photo-4050390.jpeg",
              "large2x": "https://images.pexels.com/photos/4050390/pexels-photo-4050390.jpeg?auto=compress&cs=tinysrgb&dpr=2&h=650&w=940",
              "large": "https://images.pexels.com/photos/4050390/pexels-photo-4050390.jpeg?auto=compress&cs=tinysrgb&h=650&w=940",
              "medium": "https://images.pexels.com/photos/4050390/pexels-photo-4050390.jpeg?auto=compress&cs=tinysrgb&h=350",
              "small": "https://images.pexels.com/photos/4050390/pexels-photo-4050390.jpeg?auto=compress&cs=tinysrgb&h=130",
              "portrait": "https://images.pexels.com/photos/4050390/pexels-photo-4050390.jpeg?auto=compress&cs=tinysrgb&fit=crop&h=1200&w=800",
              "landscape": "https://images.pexels.com/photos/4050390/pexels-photo-4050390.jpeg?auto=compress&cs=tinysrgb&fit=crop&h=627&w=1200",
              "tiny": "https://images.pexels.com/photos/4050390/pexels-photo-4050390.jpeg?auto=compress&cs=tinysrgb&dpr=1&fit=crop&h=200&w=280"
          },
          "liked": false
      },
      {
          "id": 4050386,
          "width": 3245,
          "height": 4671,
          "url": "https://www.pexels.com/photo/red-and-brown-train-seats-4050386/",
          "photographer": "Colin Lloyd",
          "photographer_url": "https://www.pexels.com/@colin-lloyd-2120291",
          "photographer_id": 2120291,
          "avg_color": "#332520",
          "src": {
              "original": "https://images.pexels.com/photos/4050386/pexels-photo-4050386.jpeg",
              "large2x": "https://images.pexels.com/photos/4050386/pexels-photo-4050386.jpeg?auto=compress&cs=tinysrgb&dpr=2&h=650&w=940",
              "large": "https://images.pexels.com/photos/4050386/pexels-photo-4050386.jpeg?auto=compress&cs=tinysrgb&h=650&w=940",
              "medium": "https://images.pexels.com/photos/4050386/pexels-photo-4050386.jpeg?auto=compress&cs=tinysrgb&h=350",
              "small": "https://images.pexels.com/photos/4050386/pexels-photo-4050386.jpeg?auto=compress&cs=tinysrgb&h=130",
              "portrait": "https://images.pexels.com/photos/4050386/pexels-photo-4050386.jpeg?auto=compress&cs=tinysrgb&fit=crop&h=1200&w=800",
              "landscape": "https://images.pexels.com/photos/4050386/pexels-photo-4050386.jpeg?auto=compress&cs=tinysrgb&fit=crop&h=627&w=1200",
              "tiny": "https://images.pexels.com/photos/4050386/pexels-photo-4050386.jpeg?auto=compress&cs=tinysrgb&dpr=1&fit=crop&h=200&w=280"
          },
          "liked": false
      }
  ],
  "total_results": 35,
  "next_page": "https://api.pexels.com/v1/search/?page=2&per_page=15&query=denver"
}